<svg width="56" height="42" viewBox="0 0 56 42" fill="none" xmlns="http://www.w3.org/2000/svg">
<path d="M34.0516 39.4849C33.7501 40.5158 34.4133 41.6811 35.4532 41.9501C37.0056 42.0995 36.5233 41.9202 37.8194 41.3226C43.3356 37.9311 49.1833 35.1073 54.9858 32.2387C56.9451 31.1929 55.8298 27.9658 53.6445 28.3841C47.9173 30.8493 42.3107 33.8523 36.9151 37.0197C35.1216 38.2747 34.7599 37.9759 34.0516 39.4849ZM30.4344 7.55701C31.5045 5.39064 32.5143 2.22325 34.0516 0.460266C35.7546 -0.988964 38.3469 1.28199 37.1412 3.14956C32.7253 11.2473 28.9574 24.141 25.7472 32.0595C24.8429 33.3892 22.5972 32.9111 22.2205 31.3871C21.919 30.3712 22.748 28.5783 23.4111 26.4119C25.6115 20.0772 27.8723 13.7573 30.4344 7.55701ZM0.291473 10.2612C1.15055 8.69249 3.7127 9.02118 4.1347 10.7543C5.20478 16.6707 6.69685 22.4975 7.84228 28.399C8.02314 28.6381 8.12864 30.9539 6.04877 31.0136C4.57177 31.0435 4.1347 29.5644 3.84834 28.399C3.17012 26.2775 2.61248 24.141 2.14526 21.9597C1.42183 18.5981 0.743618 15.2364 0.065403 11.8748C-0.07024 11.337 0.00511551 10.7393 0.291473 10.2612Z" fill="#F15A29"/>
</svg>
